[
				{
					"id": "1",
					"weight": 53.38,
					"cost": 45.0
				},
				{
					"id": "2",
					"weight": 88.62,
					"cost": 98.0
				},
				{
					"id": "3",
					"weight": 78.48,
					"cost": 3.0
				},
				{
					"id": "4",
					"weight": 72.3,
					"cost": 76.0
				},
				{
					"id": "5",
					"weight": 30.18,
					"cost": 9.0
				},
				{
					"id": "6",
					"weight": 46.34,
					"cost": 48.0
				}
			]